info face="Noto Sans KR Medium" size=36 bold=0 italic=0 charset="" unicode=1 stretchH=100 smooth=1 aa=1 padding=0,0,0,0 spacing=1,1 outline=0
common lineHeight=36 base=28 scaleW=1000 scaleH=1000 pages=1 packed=0 alphaChnl=1 redChnl=0 greenChnl=0 blueChnl=0
page id=0 file="numfont_0.png"
chars count=11
char id=44   x=282   y=0     width=15    height=36    xoffset=0     yoffset=0     xadvance=16    page=0  chnl=15
char id=48   x=0     y=0     width=28    height=37    xoffset=0     yoffset=0     xadvance=28    page=0  chnl=15
char id=49   x=260   y=0     width=21    height=36    xoffset=0     yoffset=0     xadvance=21    page=0  chnl=15
char id=50   x=142   y=0     width=29    height=36    xoffset=0     yoffset=0     xadvance=29    page=0  chnl=15
char id=51   x=29    y=0     width=28    height=37    xoffset=0     yoffset=0     xadvance=28    page=0  chnl=15
char id=52   x=172   y=0     width=29    height=36    xoffset=0     yoffset=0     xadvance=29    page=0  chnl=15
char id=53   x=58    y=0     width=27    height=37    xoffset=0     yoffset=0     xadvance=27    page=0  chnl=15
char id=54   x=86    y=0     width=27    height=37    xoffset=0     yoffset=0     xadvance=27    page=0  chnl=15
char id=55   x=202   y=0     width=28    height=36    xoffset=0     yoffset=0     xadvance=28    page=0  chnl=15
char id=56   x=114   y=0     width=27    height=37    xoffset=0     yoffset=0     xadvance=27    page=0  chnl=15
char id=57   x=231   y=0     width=28    height=36    xoffset=0     yoffset=0     xadvance=28    page=0  chnl=15
